Fitting
…
# Lade benötigte Pakete
library(tidyverse)
library(caret)

In diesem Practical analysierst du einen Datensatz, der Daten von 388 U.S. Colleges enthält. Die Daten sind als graduation_train.csv gespeichert. Unter Verwendung des untenstehenden Codes, lese den Datensatz ein und speichere ihn unter dem Namen graduation_train.

# Lese den graduation_train.csv Datensatz ein
graduation_train <- read_csv(file = "1_Data/graduation_train.csv")

Schaue dir die ersten paar Zeilen des Datensatzes in der Konsole an.

graduation_train

# A tibble: 500 x 18
   Privatuniversit… Bewerbungen Angenommen Eingeschrieben Prozent_Top10
   <chr>                  <dbl>      <dbl>          <dbl>         <dbl>
 1 Ja                      1202       1054            326            18
 2 Ja                      1415        714            338            18
 3 Ja                      4778       2767            678            50
 4 Ja                      1220        974            481            28
 5 Ja                      1981       1541            514            18
 6 Ja                      1217       1088            496            36
 7 Nein                    8579       5561           3681            25
 8 Nein                     833        669            279             3
 9 Nein                   10706       7219           2397            12
10 Ja                       938        864            511            29
# … with 490 more rows, and 13 more variables: Prozent_Top25 <dbl>,
#   Vollzeit <dbl>, Teilzeit <dbl>, Kosten_ausserhalb <dbl>,
#   Kosten_Unterkunft <dbl>, Kosten_Buecher <dbl>,
#   Kosten_persoenlich <dbl>, Prozent_PhD <dbl>, Prozent_Degree <dbl>,
#   Verhaeltnis_Stud.Doz. <dbl>, Prozent_Spenden <dbl>,
#   Kosten_Student <dbl>, Abschlussrate <dbl>
…
